^E:\VS2015\NDK\FAAD2-2.7\FAAD2-2.7\LIBFAAD\BITS.C|E:\VS2015\NDK\FAAD2-2.7\FAAD2-2.7\LIBFAAD\CFFT.C|E:\VS2015\NDK\FAAD2-2.7\FAAD2-2.7\LIBFAAD\COMMON.C|E:\VS2015\NDK\FAAD2-2.7\FAAD2-2.7\LIBFAAD\DECODER.C|E:\VS2015\NDK\FAAD2-2.7\FAAD2-2.7\LIBFAAD\DRC.C|E:\VS2015\NDK\FAAD2-2.7\FAAD2-2.7\LIBFAAD\DRM_DEC.C|E:\VS2015\NDK\FAAD2-2.7\FAAD2-2.7\LIBFAAD\ERROR.C|E:\VS2015\NDK\FAAD2-2.7\FAAD2-2.7\LIBFAAD\FILTBANK.C|E:\VS2015\NDK\FAAD2-2.7\FAAD2-2.7\LIBFAAD\HCR.C|E:\VS2015\NDK\FAAD2-2.7\FAAD2-2.7\LIBFAAD\HUFFMAN.C|E:\VS2015\NDK\FAAD2-2.7\FAAD2-2.7\LIBFAAD\IC_PREDICT.C|E:\VS2015\NDK\FAAD2-2.7\FAAD2-2.7\LIBFAAD\IS.C|E:\VS2015\NDK\FAAD2-2.7\FAAD2-2.7\LIBFAAD\LT_PREDICT.C|E:\VS2015\NDK\FAAD2-2.7\FAAD2-2.7\LIBFAAD\MDCT.C|E:\VS2015\NDK\FAAD2-2.7\FAAD2-2.7\LIBFAAD\MP4.C|E:\VS2015\NDK\FAAD2-2.7\FAAD2-2.7\LIBFAAD\MS.C|E:\VS2015\NDK\FAAD2-2.7\FAAD2-2.7\LIBFAAD\OUTPUT.C|E:\VS2015\NDK\FAAD2-2.7\FAAD2-2.7\LIBFAAD\PNS.C|E:\VS2015\NDK\FAAD2-2.7\FAAD2-2.7\LIBFAAD\PS_DEC.C|E:\VS2015\NDK\FAAD2-2.7\FAAD2-2.7\LIBFAAD\PS_SYNTAX.C|E:\VS2015\NDK\FAAD2-2.7\FAAD2-2.7\LIBFAAD\PULSE.C|E:\VS2015\NDK\FAAD2-2.7\FAAD2-2.7\LIBFAAD\RVLC.C|E:\VS2015\NDK\FAAD2-2.7\FAAD2-2.7\LIBFAAD\SBR_DCT.C|E:\VS2015\NDK\FAAD2-2.7\FAAD2-2.7\LIBFAAD\SBR_DEC.C|E:\VS2015\NDK\FAAD2-2.7\FAAD2-2.7\LIBFAAD\SBR_E_NF.C|E:\VS2015\NDK\FAAD2-2.7\FAAD2-2.7\LIBFAAD\SBR_FBT.C|E:\VS2015\NDK\FAAD2-2.7\FAAD2-2.7\LIBFAAD\SBR_HFADJ.C|E:\VS2015\NDK\FAAD2-2.7\FAAD2-2.7\LIBFAAD\SBR_HFGEN.C|E:\VS2015\NDK\FAAD2-2.7\FAAD2-2.7\LIBFAAD\SBR_HUFF.C|E:\VS2015\NDK\FAAD2-2.7\FAAD2-2.7\LIBFAAD\SBR_QMF.C|E:\VS2015\NDK\FAAD2-2.7\FAAD2-2.7\LIBFAAD\SBR_SYNTAX.C|E:\VS2015\NDK\FAAD2-2.7\FAAD2-2.7\LIBFAAD\SBR_TF_GRID.C|E:\VS2015\NDK\FAAD2-2.7\FAAD2-2.7\LIBFAAD\SPECREC.C|E:\VS2015\NDK\FAAD2-2.7\FAAD2-2.7\LIBFAAD\SSR.C|E:\VS2015\NDK\FAAD2-2.7\FAAD2-2.7\LIBFAAD\SSR_FB.C|E:\VS2015\NDK\FAAD2-2.7\FAAD2-2.7\LIBFAAD\SSR_IPQF.C|E:\VS2015\NDK\FAAD2-2.7\FAAD2-2.7\LIBFAAD\SYNTAX.C|E:\VS2015\NDK\FAAD2-2.7\FAAD2-2.7\LIBFAAD\TNS.C
E:\VS2015\NDK\FAAD2-2.7\FAAD2-2.7\LIBFAAD\DEBUG\PS_SYNTAX.OBJ
E:\VS2015\NDK\FAAD2-2.7\FAAD2-2.7\LIBFAAD\DEBUG\PS_DEC.OBJ
E:\VS2015\NDK\FAAD2-2.7\FAAD2-2.7\LIBFAAD\DEBUG\PNS.OBJ
E:\VS2015\NDK\FAAD2-2.7\FAAD2-2.7\LIBFAAD\DEBUG\OUTPUT.OBJ
E:\VS2015\NDK\FAAD2-2.7\FAAD2-2.7\LIBFAAD\DEBUG\MS.OBJ
E:\VS2015\NDK\FAAD2-2.7\FAAD2-2.7\LIBFAAD\DEBUG\MP4.OBJ
E:\VS2015\NDK\FAAD2-2.7\FAAD2-2.7\LIBFAAD\DEBUG\MDCT.OBJ
E:\VS2015\NDK\FAAD2-2.7\FAAD2-2.7\LIBFAAD\DEBUG\LT_PREDICT.OBJ
E:\VS2015\NDK\FAAD2-2.7\FAAD2-2.7\LIBFAAD\DEBUG\IS.OBJ
E:\VS2015\NDK\FAAD2-2.7\FAAD2-2.7\LIBFAAD\DEBUG\IC_PREDICT.OBJ
E:\VS2015\NDK\FAAD2-2.7\FAAD2-2.7\LIBFAAD\DEBUG\HUFFMAN.OBJ
E:\VS2015\NDK\FAAD2-2.7\FAAD2-2.7\LIBFAAD\DEBUG\HCR.OBJ
E:\VS2015\NDK\FAAD2-2.7\FAAD2-2.7\LIBFAAD\DEBUG\FILTBANK.OBJ
E:\VS2015\NDK\FAAD2-2.7\FAAD2-2.7\LIBFAAD\DEBUG\ERROR.OBJ
E:\VS2015\NDK\FAAD2-2.7\FAAD2-2.7\LIBFAAD\DEBUG\DRM_DEC.OBJ
E:\VS2015\NDK\FAAD2-2.7\FAAD2-2.7\LIBFAAD\DEBUG\DRC.OBJ
E:\VS2015\NDK\FAAD2-2.7\FAAD2-2.7\LIBFAAD\DEBUG\DECODER.OBJ
E:\VS2015\NDK\FAAD2-2.7\FAAD2-2.7\LIBFAAD\DEBUG\COMMON.OBJ
E:\VS2015\NDK\FAAD2-2.7\FAAD2-2.7\LIBFAAD\DEBUG\CFFT.OBJ
E:\VS2015\NDK\FAAD2-2.7\FAAD2-2.7\LIBFAAD\DEBUG\BITS.OBJ
E:\VS2015\NDK\FAAD2-2.7\FAAD2-2.7\LIBFAAD\DEBUG\TNS.OBJ
E:\VS2015\NDK\FAAD2-2.7\FAAD2-2.7\LIBFAAD\DEBUG\SYNTAX.OBJ
E:\VS2015\NDK\FAAD2-2.7\FAAD2-2.7\LIBFAAD\DEBUG\SSR_IPQF.OBJ
E:\VS2015\NDK\FAAD2-2.7\FAAD2-2.7\LIBFAAD\DEBUG\SSR_FB.OBJ
E:\VS2015\NDK\FAAD2-2.7\FAAD2-2.7\LIBFAAD\DEBUG\SSR.OBJ
E:\VS2015\NDK\FAAD2-2.7\FAAD2-2.7\LIBFAAD\DEBUG\SPECREC.OBJ
E:\VS2015\NDK\FAAD2-2.7\FAAD2-2.7\LIBFAAD\DEBUG\SBR_TF_GRID.OBJ
E:\VS2015\NDK\FAAD2-2.7\FAAD2-2.7\LIBFAAD\DEBUG\SBR_SYNTAX.OBJ
E:\VS2015\NDK\FAAD2-2.7\FAAD2-2.7\LIBFAAD\DEBUG\SBR_QMF.OBJ
E:\VS2015\NDK\FAAD2-2.7\FAAD2-2.7\LIBFAAD\DEBUG\SBR_HUFF.OBJ
E:\VS2015\NDK\FAAD2-2.7\FAAD2-2.7\LIBFAAD\DEBUG\SBR_HFGEN.OBJ
E:\VS2015\NDK\FAAD2-2.7\FAAD2-2.7\LIBFAAD\DEBUG\SBR_HFADJ.OBJ
E:\VS2015\NDK\FAAD2-2.7\FAAD2-2.7\LIBFAAD\DEBUG\SBR_FBT.OBJ
E:\VS2015\NDK\FAAD2-2.7\FAAD2-2.7\LIBFAAD\DEBUG\SBR_E_NF.OBJ
E:\VS2015\NDK\FAAD2-2.7\FAAD2-2.7\LIBFAAD\DEBUG\SBR_DEC.OBJ
E:\VS2015\NDK\FAAD2-2.7\FAAD2-2.7\LIBFAAD\DEBUG\SBR_DCT.OBJ
E:\VS2015\NDK\FAAD2-2.7\FAAD2-2.7\LIBFAAD\DEBUG\RVLC.OBJ
E:\VS2015\NDK\FAAD2-2.7\FAAD2-2.7\LIBFAAD\DEBUG\PULSE.OBJ
^E:\VS2015\NDK\FAAD2-2.7\FAAD2-2.7\LIBFAAD\BITS.C
E:\VS2015\NDK\FAAD2-2.7\FAAD2-2.7\LIBFAAD\DEBUG\VC100.PDB
^E:\VS2015\NDK\FAAD2-2.7\FAAD2-2.7\LIBFAAD\CFFT.C
E:\VS2015\NDK\FAAD2-2.7\FAAD2-2.7\LIBFAAD\DEBUG\VC100.PDB
^E:\VS2015\NDK\FAAD2-2.7\FAAD2-2.7\LIBFAAD\COMMON.C
E:\VS2015\NDK\FAAD2-2.7\FAAD2-2.7\LIBFAAD\DEBUG\VC100.PDB
^E:\VS2015\NDK\FAAD2-2.7\FAAD2-2.7\LIBFAAD\DECODER.C
E:\VS2015\NDK\FAAD2-2.7\FAAD2-2.7\LIBFAAD\DEBUG\VC100.PDB
^E:\VS2015\NDK\FAAD2-2.7\FAAD2-2.7\LIBFAAD\DRC.C
E:\VS2015\NDK\FAAD2-2.7\FAAD2-2.7\LIBFAAD\DEBUG\VC100.PDB
^E:\VS2015\NDK\FAAD2-2.7\FAAD2-2.7\LIBFAAD\DRM_DEC.C
E:\VS2015\NDK\FAAD2-2.7\FAAD2-2.7\LIBFAAD\DEBUG\VC100.PDB
^E:\VS2015\NDK\FAAD2-2.7\FAAD2-2.7\LIBFAAD\ERROR.C
E:\VS2015\NDK\FAAD2-2.7\FAAD2-2.7\LIBFAAD\DEBUG\VC100.PDB
^E:\VS2015\NDK\FAAD2-2.7\FAAD2-2.7\LIBFAAD\FILTBANK.C
E:\VS2015\NDK\FAAD2-2.7\FAAD2-2.7\LIBFAAD\DEBUG\VC100.PDB
^E:\VS2015\NDK\FAAD2-2.7\FAAD2-2.7\LIBFAAD\HCR.C
E:\VS2015\NDK\FAAD2-2.7\FAAD2-2.7\LIBFAAD\DEBUG\VC100.PDB
^E:\VS2015\NDK\FAAD2-2.7\FAAD2-2.7\LIBFAAD\HUFFMAN.C
E:\VS2015\NDK\FAAD2-2.7\FAAD2-2.7\LIBFAAD\DEBUG\VC100.PDB
^E:\VS2015\NDK\FAAD2-2.7\FAAD2-2.7\LIBFAAD\IC_PREDICT.C
E:\VS2015\NDK\FAAD2-2.7\FAAD2-2.7\LIBFAAD\DEBUG\VC100.PDB
^E:\VS2015\NDK\FAAD2-2.7\FAAD2-2.7\LIBFAAD\IS.C
E:\VS2015\NDK\FAAD2-2.7\FAAD2-2.7\LIBFAAD\DEBUG\VC100.PDB
^E:\VS2015\NDK\FAAD2-2.7\FAAD2-2.7\LIBFAAD\LT_PREDICT.C
E:\VS2015\NDK\FAAD2-2.7\FAAD2-2.7\LIBFAAD\DEBUG\VC100.PDB
^E:\VS2015\NDK\FAAD2-2.7\FAAD2-2.7\LIBFAAD\MDCT.C
E:\VS2015\NDK\FAAD2-2.7\FAAD2-2.7\LIBFAAD\DEBUG\VC100.PDB
^E:\VS2015\NDK\FAAD2-2.7\FAAD2-2.7\LIBFAAD\MP4.C
E:\VS2015\NDK\FAAD2-2.7\FAAD2-2.7\LIBFAAD\DEBUG\VC100.PDB
^E:\VS2015\NDK\FAAD2-2.7\FAAD2-2.7\LIBFAAD\MS.C
E:\VS2015\NDK\FAAD2-2.7\FAAD2-2.7\LIBFAAD\DEBUG\VC100.PDB
^E:\VS2015\NDK\FAAD2-2.7\FAAD2-2.7\LIBFAAD\OUTPUT.C
E:\VS2015\NDK\FAAD2-2.7\FAAD2-2.7\LIBFAAD\DEBUG\VC100.PDB
^E:\VS2015\NDK\FAAD2-2.7\FAAD2-2.7\LIBFAAD\PNS.C
E:\VS2015\NDK\FAAD2-2.7\FAAD2-2.7\LIBFAAD\DEBUG\VC100.PDB
^E:\VS2015\NDK\FAAD2-2.7\FAAD2-2.7\LIBFAAD\PS_DEC.C
E:\VS2015\NDK\FAAD2-2.7\FAAD2-2.7\LIBFAAD\DEBUG\VC100.PDB
^E:\VS2015\NDK\FAAD2-2.7\FAAD2-2.7\LIBFAAD\PS_SYNTAX.C
E:\VS2015\NDK\FAAD2-2.7\FAAD2-2.7\LIBFAAD\DEBUG\VC100.PDB
^E:\VS2015\NDK\FAAD2-2.7\FAAD2-2.7\LIBFAAD\PULSE.C
E:\VS2015\NDK\FAAD2-2.7\FAAD2-2.7\LIBFAAD\DEBUG\VC100.PDB
^E:\VS2015\NDK\FAAD2-2.7\FAAD2-2.7\LIBFAAD\RVLC.C
E:\VS2015\NDK\FAAD2-2.7\FAAD2-2.7\LIBFAAD\DEBUG\VC100.PDB
^E:\VS2015\NDK\FAAD2-2.7\FAAD2-2.7\LIBFAAD\SBR_DCT.C
E:\VS2015\NDK\FAAD2-2.7\FAAD2-2.7\LIBFAAD\DEBUG\VC100.PDB
^E:\VS2015\NDK\FAAD2-2.7\FAAD2-2.7\LIBFAAD\SBR_DEC.C
E:\VS2015\NDK\FAAD2-2.7\FAAD2-2.7\LIBFAAD\DEBUG\VC100.PDB
^E:\VS2015\NDK\FAAD2-2.7\FAAD2-2.7\LIBFAAD\SBR_E_NF.C
E:\VS2015\NDK\FAAD2-2.7\FAAD2-2.7\LIBFAAD\DEBUG\VC100.PDB
^E:\VS2015\NDK\FAAD2-2.7\FAAD2-2.7\LIBFAAD\SBR_FBT.C
E:\VS2015\NDK\FAAD2-2.7\FAAD2-2.7\LIBFAAD\DEBUG\VC100.PDB
^E:\VS2015\NDK\FAAD2-2.7\FAAD2-2.7\LIBFAAD\SBR_HFADJ.C
E:\VS2015\NDK\FAAD2-2.7\FAAD2-2.7\LIBFAAD\DEBUG\VC100.PDB
^E:\VS2015\NDK\FAAD2-2.7\FAAD2-2.7\LIBFAAD\SBR_HFGEN.C
E:\VS2015\NDK\FAAD2-2.7\FAAD2-2.7\LIBFAAD\DEBUG\VC100.PDB
^E:\VS2015\NDK\FAAD2-2.7\FAAD2-2.7\LIBFAAD\SBR_HUFF.C
E:\VS2015\NDK\FAAD2-2.7\FAAD2-2.7\LIBFAAD\DEBUG\VC100.PDB
^E:\VS2015\NDK\FAAD2-2.7\FAAD2-2.7\LIBFAAD\SBR_QMF.C
E:\VS2015\NDK\FAAD2-2.7\FAAD2-2.7\LIBFAAD\DEBUG\VC100.PDB
^E:\VS2015\NDK\FAAD2-2.7\FAAD2-2.7\LIBFAAD\SBR_SYNTAX.C
E:\VS2015\NDK\FAAD2-2.7\FAAD2-2.7\LIBFAAD\DEBUG\VC100.PDB
^E:\VS2015\NDK\FAAD2-2.7\FAAD2-2.7\LIBFAAD\SBR_TF_GRID.C
E:\VS2015\NDK\FAAD2-2.7\FAAD2-2.7\LIBFAAD\DEBUG\VC100.PDB
^E:\VS2015\NDK\FAAD2-2.7\FAAD2-2.7\LIBFAAD\SPECREC.C
E:\VS2015\NDK\FAAD2-2.7\FAAD2-2.7\LIBFAAD\DEBUG\VC100.PDB
^E:\VS2015\NDK\FAAD2-2.7\FAAD2-2.7\LIBFAAD\SSR.C
E:\VS2015\NDK\FAAD2-2.7\FAAD2-2.7\LIBFAAD\DEBUG\VC100.PDB
^E:\VS2015\NDK\FAAD2-2.7\FAAD2-2.7\LIBFAAD\SSR_FB.C
E:\VS2015\NDK\FAAD2-2.7\FAAD2-2.7\LIBFAAD\DEBUG\VC100.PDB
^E:\VS2015\NDK\FAAD2-2.7\FAAD2-2.7\LIBFAAD\SSR_IPQF.C
E:\VS2015\NDK\FAAD2-2.7\FAAD2-2.7\LIBFAAD\DEBUG\VC100.PDB
^E:\VS2015\NDK\FAAD2-2.7\FAAD2-2.7\LIBFAAD\SYNTAX.C
E:\VS2015\NDK\FAAD2-2.7\FAAD2-2.7\LIBFAAD\DEBUG\VC100.PDB
^E:\VS2015\NDK\FAAD2-2.7\FAAD2-2.7\LIBFAAD\TNS.C
E:\VS2015\NDK\FAAD2-2.7\FAAD2-2.7\LIBFAAD\DEBUG\VC100.PDB
^E:\DEVELOPMENT_WIN10\SOX\SOX\SOX\LIBFAAD\BITS.C|E:\DEVELOPMENT_WIN10\SOX\SOX\SOX\LIBFAAD\CFFT.C|E:\DEVELOPMENT_WIN10\SOX\SOX\SOX\LIBFAAD\COMMON.C|E:\DEVELOPMENT_WIN10\SOX\SOX\SOX\LIBFAAD\DECODER.C|E:\DEVELOPMENT_WIN10\SOX\SOX\SOX\LIBFAAD\DRC.C|E:\DEVELOPMENT_WIN10\SOX\SOX\SOX\LIBFAAD\DRM_DEC.C|E:\DEVELOPMENT_WIN10\SOX\SOX\SOX\LIBFAAD\ERROR.C|E:\DEVELOPMENT_WIN10\SOX\SOX\SOX\LIBFAAD\FILTBANK.C|E:\DEVELOPMENT_WIN10\SOX\SOX\SOX\LIBFAAD\HCR.C|E:\DEVELOPMENT_WIN10\SOX\SOX\SOX\LIBFAAD\HUFFMAN.C|E:\DEVELOPMENT_WIN10\SOX\SOX\SOX\LIBFAAD\IC_PREDICT.C|E:\DEVELOPMENT_WIN10\SOX\SOX\SOX\LIBFAAD\IS.C|E:\DEVELOPMENT_WIN10\SOX\SOX\SOX\LIBFAAD\LT_PREDICT.C|E:\DEVELOPMENT_WIN10\SOX\SOX\SOX\LIBFAAD\MDCT.C|E:\DEVELOPMENT_WIN10\SOX\SOX\SOX\LIBFAAD\MP4.C|E:\DEVELOPMENT_WIN10\SOX\SOX\SOX\LIBFAAD\MS.C|E:\DEVELOPMENT_WIN10\SOX\SOX\SOX\LIBFAAD\OUTPUT.C|E:\DEVELOPMENT_WIN10\SOX\SOX\SOX\LIBFAAD\PNS.C|E:\DEVELOPMENT_WIN10\SOX\SOX\SOX\LIBFAAD\PS_DEC.C|E:\DEVELOPMENT_WIN10\SOX\SOX\SOX\LIBFAAD\PS_SYNTAX.C|E:\DEVELOPMENT_WIN10\SOX\SOX\SOX\LIBFAAD\PULSE.C|E:\DEVELOPMENT_WIN10\SOX\SOX\SOX\LIBFAAD\RVLC.C|E:\DEVELOPMENT_WIN10\SOX\SOX\SOX\LIBFAAD\SBR_DCT.C|E:\DEVELOPMENT_WIN10\SOX\SOX\SOX\LIBFAAD\SBR_DEC.C|E:\DEVELOPMENT_WIN10\SOX\SOX\SOX\LIBFAAD\SBR_E_NF.C|E:\DEVELOPMENT_WIN10\SOX\SOX\SOX\LIBFAAD\SBR_FBT.C|E:\DEVELOPMENT_WIN10\SOX\SOX\SOX\LIBFAAD\SBR_HFADJ.C|E:\DEVELOPMENT_WIN10\SOX\SOX\SOX\LIBFAAD\SBR_HFGEN.C|E:\DEVELOPMENT_WIN10\SOX\SOX\SOX\LIBFAAD\SBR_HUFF.C|E:\DEVELOPMENT_WIN10\SOX\SOX\SOX\LIBFAAD\SBR_QMF.C|E:\DEVELOPMENT_WIN10\SOX\SOX\SOX\LIBFAAD\SBR_SYNTAX.C|E:\DEVELOPMENT_WIN10\SOX\SOX\SOX\LIBFAAD\SBR_TF_GRID.C|E:\DEVELOPMENT_WIN10\SOX\SOX\SOX\LIBFAAD\SPECREC.C|E:\DEVELOPMENT_WIN10\SOX\SOX\SOX\LIBFAAD\SSR.C|E:\DEVELOPMENT_WIN10\SOX\SOX\SOX\LIBFAAD\SSR_FB.C|E:\DEVELOPMENT_WIN10\SOX\SOX\SOX\LIBFAAD\SSR_IPQF.C|E:\DEVELOPMENT_WIN10\SOX\SOX\SOX\LIBFAAD\SYNTAX.C|E:\DEVELOPMENT_WIN10\SOX\SOX\SOX\LIBFAAD\TNS.C
E:\DEVELOPMENT_WIN10\SOX\SOX\SOX\LIBFAAD\DEBUG\PS_SYNTAX.OBJ
E:\DEVELOPMENT_WIN10\SOX\SOX\SOX\LIBFAAD\DEBUG\PS_DEC.OBJ
E:\DEVELOPMENT_WIN10\SOX\SOX\SOX\LIBFAAD\DEBUG\PNS.OBJ
E:\DEVELOPMENT_WIN10\SOX\SOX\SOX\LIBFAAD\DEBUG\OUTPUT.OBJ
E:\DEVELOPMENT_WIN10\SOX\SOX\SOX\LIBFAAD\DEBUG\MS.OBJ
E:\DEVELOPMENT_WIN10\SOX\SOX\SOX\LIBFAAD\DEBUG\MP4.OBJ
E:\DEVELOPMENT_WIN10\SOX\SOX\SOX\LIBFAAD\DEBUG\MDCT.OBJ
E:\DEVELOPMENT_WIN10\SOX\SOX\SOX\LIBFAAD\DEBUG\LT_PREDICT.OBJ
E:\DEVELOPMENT_WIN10\SOX\SOX\SOX\LIBFAAD\DEBUG\IS.OBJ
E:\DEVELOPMENT_WIN10\SOX\SOX\SOX\LIBFAAD\DEBUG\IC_PREDICT.OBJ
E:\DEVELOPMENT_WIN10\SOX\SOX\SOX\LIBFAAD\DEBUG\HUFFMAN.OBJ
E:\DEVELOPMENT_WIN10\SOX\SOX\SOX\LIBFAAD\DEBUG\HCR.OBJ
E:\DEVELOPMENT_WIN10\SOX\SOX\SOX\LIBFAAD\DEBUG\FILTBANK.OBJ
E:\DEVELOPMENT_WIN10\SOX\SOX\SOX\LIBFAAD\DEBUG\ERROR.OBJ
E:\DEVELOPMENT_WIN10\SOX\SOX\SOX\LIBFAAD\DEBUG\DRM_DEC.OBJ
E:\DEVELOPMENT_WIN10\SOX\SOX\SOX\LIBFAAD\DEBUG\DRC.OBJ
E:\DEVELOPMENT_WIN10\SOX\SOX\SOX\LIBFAAD\DEBUG\DECODER.OBJ
E:\DEVELOPMENT_WIN10\SOX\SOX\SOX\LIBFAAD\DEBUG\COMMON.OBJ
E:\DEVELOPMENT_WIN10\SOX\SOX\SOX\LIBFAAD\DEBUG\CFFT.OBJ
E:\DEVELOPMENT_WIN10\SOX\SOX\SOX\LIBFAAD\DEBUG\BITS.OBJ
E:\DEVELOPMENT_WIN10\SOX\SOX\SOX\LIBFAAD\DEBUG\TNS.OBJ
E:\DEVELOPMENT_WIN10\SOX\SOX\SOX\LIBFAAD\DEBUG\SYNTAX.OBJ
E:\DEVELOPMENT_WIN10\SOX\SOX\SOX\LIBFAAD\DEBUG\SSR_IPQF.OBJ
E:\DEVELOPMENT_WIN10\SOX\SOX\SOX\LIBFAAD\DEBUG\SSR_FB.OBJ
E:\DEVELOPMENT_WIN10\SOX\SOX\SOX\LIBFAAD\DEBUG\SSR.OBJ
E:\DEVELOPMENT_WIN10\SOX\SOX\SOX\LIBFAAD\DEBUG\SPECREC.OBJ
E:\DEVELOPMENT_WIN10\SOX\SOX\SOX\LIBFAAD\DEBUG\SBR_TF_GRID.OBJ
E:\DEVELOPMENT_WIN10\SOX\SOX\SOX\LIBFAAD\DEBUG\SBR_SYNTAX.OBJ
E:\DEVELOPMENT_WIN10\SOX\SOX\SOX\LIBFAAD\DEBUG\SBR_QMF.OBJ
E:\DEVELOPMENT_WIN10\SOX\SOX\SOX\LIBFAAD\DEBUG\SBR_HUFF.OBJ
E:\DEVELOPMENT_WIN10\SOX\SOX\SOX\LIBFAAD\DEBUG\SBR_HFGEN.OBJ
E:\DEVELOPMENT_WIN10\SOX\SOX\SOX\LIBFAAD\DEBUG\SBR_HFADJ.OBJ
E:\DEVELOPMENT_WIN10\SOX\SOX\SOX\LIBFAAD\DEBUG\SBR_FBT.OBJ
E:\DEVELOPMENT_WIN10\SOX\SOX\SOX\LIBFAAD\DEBUG\SBR_E_NF.OBJ
E:\DEVELOPMENT_WIN10\SOX\SOX\SOX\LIBFAAD\DEBUG\SBR_DEC.OBJ
E:\DEVELOPMENT_WIN10\SOX\SOX\SOX\LIBFAAD\DEBUG\SBR_DCT.OBJ
E:\DEVELOPMENT_WIN10\SOX\SOX\SOX\LIBFAAD\DEBUG\RVLC.OBJ
E:\DEVELOPMENT_WIN10\SOX\SOX\SOX\LIBFAAD\DEBUG\PULSE.OBJ
^E:\DEVELOPMENT_WIN10\SOX\SOX\SOX\LIBFAAD\BITS.C
E:\DEVELOPMENT_WIN10\SOX\SOX\SOX\LIBFAAD\DEBUG\VC100.PDB
^E:\DEVELOPMENT_WIN10\SOX\SOX\SOX\LIBFAAD\CFFT.C
E:\DEVELOPMENT_WIN10\SOX\SOX\SOX\LIBFAAD\DEBUG\VC100.PDB
^E:\DEVELOPMENT_WIN10\SOX\SOX\SOX\LIBFAAD\COMMON.C
E:\DEVELOPMENT_WIN10\SOX\SOX\SOX\LIBFAAD\DEBUG\VC100.PDB
^E:\DEVELOPMENT_WIN10\SOX\SOX\SOX\LIBFAAD\DECODER.C
E:\DEVELOPMENT_WIN10\SOX\SOX\SOX\LIBFAAD\DEBUG\VC100.PDB
^E:\DEVELOPMENT_WIN10\SOX\SOX\SOX\LIBFAAD\DRC.C
E:\DEVELOPMENT_WIN10\SOX\SOX\SOX\LIBFAAD\DEBUG\VC100.PDB
^E:\DEVELOPMENT_WIN10\SOX\SOX\SOX\LIBFAAD\DRM_DEC.C
E:\DEVELOPMENT_WIN10\SOX\SOX\SOX\LIBFAAD\DEBUG\VC100.PDB
^E:\DEVELOPMENT_WIN10\SOX\SOX\SOX\LIBFAAD\ERROR.C
E:\DEVELOPMENT_WIN10\SOX\SOX\SOX\LIBFAAD\DEBUG\VC100.PDB
^E:\DEVELOPMENT_WIN10\SOX\SOX\SOX\LIBFAAD\FILTBANK.C
E:\DEVELOPMENT_WIN10\SOX\SOX\SOX\LIBFAAD\DEBUG\VC100.PDB
^E:\DEVELOPMENT_WIN10\SOX\SOX\SOX\LIBFAAD\HCR.C
E:\DEVELOPMENT_WIN10\SOX\SOX\SOX\LIBFAAD\DEBUG\VC100.PDB
^E:\DEVELOPMENT_WIN10\SOX\SOX\SOX\LIBFAAD\HUFFMAN.C
E:\DEVELOPMENT_WIN10\SOX\SOX\SOX\LIBFAAD\DEBUG\VC100.PDB
^E:\DEVELOPMENT_WIN10\SOX\SOX\SOX\LIBFAAD\IC_PREDICT.C
E:\DEVELOPMENT_WIN10\SOX\SOX\SOX\LIBFAAD\DEBUG\VC100.PDB
^E:\DEVELOPMENT_WIN10\SOX\SOX\SOX\LIBFAAD\IS.C
E:\DEVELOPMENT_WIN10\SOX\SOX\SOX\LIBFAAD\DEBUG\VC100.PDB
^E:\DEVELOPMENT_WIN10\SOX\SOX\SOX\LIBFAAD\LT_PREDICT.C
E:\DEVELOPMENT_WIN10\SOX\SOX\SOX\LIBFAAD\DEBUG\VC100.PDB
^E:\DEVELOPMENT_WIN10\SOX\SOX\SOX\LIBFAAD\MDCT.C
E:\DEVELOPMENT_WIN10\SOX\SOX\SOX\LIBFAAD\DEBUG\VC100.PDB
^E:\DEVELOPMENT_WIN10\SOX\SOX\SOX\LIBFAAD\MP4.C
E:\DEVELOPMENT_WIN10\SOX\SOX\SOX\LIBFAAD\DEBUG\VC100.PDB
^E:\DEVELOPMENT_WIN10\SOX\SOX\SOX\LIBFAAD\MS.C
E:\DEVELOPMENT_WIN10\SOX\SOX\SOX\LIBFAAD\DEBUG\VC100.PDB
^E:\DEVELOPMENT_WIN10\SOX\SOX\SOX\LIBFAAD\OUTPUT.C
E:\DEVELOPMENT_WIN10\SOX\SOX\SOX\LIBFAAD\DEBUG\VC100.PDB
^E:\DEVELOPMENT_WIN10\SOX\SOX\SOX\LIBFAAD\PNS.C
E:\DEVELOPMENT_WIN10\SOX\SOX\SOX\LIBFAAD\DEBUG\VC100.PDB
^E:\DEVELOPMENT_WIN10\SOX\SOX\SOX\LIBFAAD\PS_DEC.C
E:\DEVELOPMENT_WIN10\SOX\SOX\SOX\LIBFAAD\DEBUG\VC100.PDB
^E:\DEVELOPMENT_WIN10\SOX\SOX\SOX\LIBFAAD\PS_SYNTAX.C
E:\DEVELOPMENT_WIN10\SOX\SOX\SOX\LIBFAAD\DEBUG\VC100.PDB
^E:\DEVELOPMENT_WIN10\SOX\SOX\SOX\LIBFAAD\PULSE.C
E:\DEVELOPMENT_WIN10\SOX\SOX\SOX\LIBFAAD\DEBUG\VC100.PDB
^E:\DEVELOPMENT_WIN10\SOX\SOX\SOX\LIBFAAD\RVLC.C
E:\DEVELOPMENT_WIN10\SOX\SOX\SOX\LIBFAAD\DEBUG\VC100.PDB
^E:\DEVELOPMENT_WIN10\SOX\SOX\SOX\LIBFAAD\SBR_DCT.C
E:\DEVELOPMENT_WIN10\SOX\SOX\SOX\LIBFAAD\DEBUG\VC100.PDB
^E:\DEVELOPMENT_WIN10\SOX\SOX\SOX\LIBFAAD\SBR_DEC.C
E:\DEVELOPMENT_WIN10\SOX\SOX\SOX\LIBFAAD\DEBUG\VC100.PDB
^E:\DEVELOPMENT_WIN10\SOX\SOX\SOX\LIBFAAD\SBR_E_NF.C
E:\DEVELOPMENT_WIN10\SOX\SOX\SOX\LIBFAAD\DEBUG\VC100.PDB
^E:\DEVELOPMENT_WIN10\SOX\SOX\SOX\LIBFAAD\SBR_FBT.C
E:\DEVELOPMENT_WIN10\SOX\SOX\SOX\LIBFAAD\DEBUG\VC100.PDB
^E:\DEVELOPMENT_WIN10\SOX\SOX\SOX\LIBFAAD\SBR_HFADJ.C
E:\DEVELOPMENT_WIN10\SOX\SOX\SOX\LIBFAAD\DEBUG\VC100.PDB
^E:\DEVELOPMENT_WIN10\SOX\SOX\SOX\LIBFAAD\SBR_HFGEN.C
E:\DEVELOPMENT_WIN10\SOX\SOX\SOX\LIBFAAD\DEBUG\VC100.PDB
^E:\DEVELOPMENT_WIN10\SOX\SOX\SOX\LIBFAAD\SBR_HUFF.C
E:\DEVELOPMENT_WIN10\SOX\SOX\SOX\LIBFAAD\DEBUG\VC100.PDB
^E:\DEVELOPMENT_WIN10\SOX\SOX\SOX\LIBFAAD\SBR_QMF.C
E:\DEVELOPMENT_WIN10\SOX\SOX\SOX\LIBFAAD\DEBUG\VC100.PDB
^E:\DEVELOPMENT_WIN10\SOX\SOX\SOX\LIBFAAD\SBR_SYNTAX.C
E:\DEVELOPMENT_WIN10\SOX\SOX\SOX\LIBFAAD\DEBUG\VC100.PDB
^E:\DEVELOPMENT_WIN10\SOX\SOX\SOX\LIBFAAD\SBR_TF_GRID.C
E:\DEVELOPMENT_WIN10\SOX\SOX\SOX\LIBFAAD\DEBUG\VC100.PDB
^E:\DEVELOPMENT_WIN10\SOX\SOX\SOX\LIBFAAD\SPECREC.C
E:\DEVELOPMENT_WIN10\SOX\SOX\SOX\LIBFAAD\DEBUG\VC100.PDB
^E:\DEVELOPMENT_WIN10\SOX\SOX\SOX\LIBFAAD\SSR.C
E:\DEVELOPMENT_WIN10\SOX\SOX\SOX\LIBFAAD\DEBUG\VC100.PDB
^E:\DEVELOPMENT_WIN10\SOX\SOX\SOX\LIBFAAD\SSR_FB.C
E:\DEVELOPMENT_WIN10\SOX\SOX\SOX\LIBFAAD\DEBUG\VC100.PDB
^E:\DEVELOPMENT_WIN10\SOX\SOX\SOX\LIBFAAD\SSR_IPQF.C
E:\DEVELOPMENT_WIN10\SOX\SOX\SOX\LIBFAAD\DEBUG\VC100.PDB
^E:\DEVELOPMENT_WIN10\SOX\SOX\SOX\LIBFAAD\SYNTAX.C
E:\DEVELOPMENT_WIN10\SOX\SOX\SOX\LIBFAAD\DEBUG\VC100.PDB
^E:\DEVELOPMENT_WIN10\SOX\SOX\SOX\LIBFAAD\TNS.C
E:\DEVELOPMENT_WIN10\SOX\SOX\SOX\LIBFAAD\DEBUG\VC100.PDB
